dump.vcd
$date
	Mon Apr 08 22:43:48 2024
$end
$version
	ModelSim Version 2020.1
$end
$timescale
	1ps
$end

$scope module tb_D_flipflop_reset $end
$var reg 1 ! clk $end
$var reg 1 " rst_n $end
$var reg 1 # d $end
$var wire 1 $ q $end
$upscope $end
$enddefinitions $end
#0
$dumpvars
0!
0"
0#
0$
$end
#20
1!
1"
1#
#40
0!
0#
#60
1!
#80
0!
#100
1!
#120
0!
1#
#140
1!
0"
1$
#160
0!
1"
#180
1!
0"
0#
0$
#200
0!
#220
1!
#240
0!
1#
#260
1!
0#
#280
0!
1#
