sequence_detector_2_tb.vcd
$date
	Tue May 07 09:24:00 2024
$end
$version
	ModelSim Version 2020.1
$end
$timescale
	10ps
$end

$scope module sequence_detector_2_tb $end
$var parameter 32 ! T $end
$var reg 1 " w $end
$var reg 1 # clk $end
$var reg 1 $ reset $end
$var wire 1 % z $end

$scope module detector $end
$var parameter 3 & s0 $end
$var parameter 3 ' s1 $end
$var parameter 3 ( s2 $end
$var parameter 3 ) s3 $end
$var parameter 3 * s4 $end
$var wire 1 + w $end
$var wire 1 , clk $end
$var wire 1 - reset $end
$var reg 1 . z $end
$var reg 3 / state_reg [2:0] $end
$var reg 3 0 state_next [2:0] $end
$upscope $end
$upscope $end
$enddefinitions $end
#0
$dumpvars
0"
1#
1$
x.
bx /
bx 0
b10100 !
b0 &
b1 '
b10 (
b11 )
b100 *
x%
1-
1,
0+
$end
#500
0#
0,
#1000
1#
1,
0$
b0 /
0.
0-
0%
b0 0
#1500
0#
0,
#2000
1#
1,
1"
1+
b1 0
#2500
0#
0,
#3000
1#
1,
0"
b1 /
0+
b10 0
#3500
0#
0,
#4000
1#
1,
b10 /
b11 0
#4500
0#
0,
#5000
1#
1,
1"
b11 /
1+
b100 0
#5500
0#
0,
#6000
1#
1,
b100 /
1.
1%
b1 0
#6500
0#
0,
#7000
1#
1,
0"
b1 /
0.
0%
0+
b10 0
#7500
0#
0,
#8000
1#
1,
1"
b10 /
1+
b100 0
#8500
0#
0,
#9000
1#
1,
1$
b100 /
1.
1-
1%
b1 0
#9500
0#
0,
#10000
1#
1,
0$
b0 /
0.
0-
0%
#10500
0#
0,
#11000
1#
1,
0"
b1 /
0+
b10 0
#11500
0#
0,
#12000
1#
1,
b10 /
b11 0
#12500
0#
0,
#13000
1#
1,
1"
b11 /
1+
b100 0
#13500
0#
0,
#14000
1#
1,
1$
b100 /
1.
1-
1%
b1 0
#14500
0#
0,
#15000
1#
1,
0$
b0 /
0.
0-
0%
#15500
0#
0,
#16000
1#
1,
0"
b1 /
0+
b10 0
#16500
0#
0,
#17000
1#
1,
1"
b10 /
1+
b100 0
#17500
0#
0,
#18000
1#
1,
0"
b100 /
1.
1%
0+
b10 0
#18500
0#
0,
#19000
1#
1,
1$
b10 /
0.
1-
0%
b11 0
#19500
0#
0,
#20000
1#
1,
0$
b0 /
0-
b0 0
#20500
0#
0,
#21000
1#
1,
#21500
0#
0,
#22000
1#
1,
#22500
0#
0,
#23000
1#
1,
1"
1+
b1 0
#23500
0#
0,
#24000
1#
1,
0"
b1 /
0+
b10 0
#24500
0#
0,
#25000
1#
1,
b10 /
b11 0
#25500
0#
0,
#26000
1#
1,
1"
b11 /
1+
b100 0
#26500
0#
0,
#27000
1#
1,
b100 /
1.
1%
b1 0
#27500
0#
0,
#28000
1#
1,
b1 /
0.
0%
